%YAML 1.1
%TAG !u! tag:unity3d.com,2011:
--- !u!1045 &1
EditorBuildSettings:
  m_ObjectHideFlags: 0
  serializedVersion: 2
  m_Scenes:
  - enabled: 1
    path: Assets/Scenes/MainMenu.unity
    guid: 751c9b9f2475f7b438e1981930c126ed
  - enabled: 1
    path: Assets/Scenes/LevelSelect.unity
    guid: 45faeb5d4c2e81b4b9bdae20bf3bba57
  - enabled: 1
    path: Assets/Scenes/GameplayScene.unity
    guid: 9fc0d4010bbf28b4594072e72b8655ab
  m_configObjects: {}
